F:\myIdeaProject\CarCRM\project_crm\src\main\java\com\car_crm\service\impl\ContractServiceImpl.java
F:\myIdeaProject\CarCRM\project_crm\src\main\java\com\car_crm\mapper\DemandMapper.java
F:\myIdeaProject\CarCRM\project_crm\src\main\java\com\car_crm\controller\IndexController.java
F:\myIdeaProject\CarCRM\project_crm\src\main\java\com\car_crm\vo\common\Role.java
F:\myIdeaProject\CarCRM\project_crm\src\main\java\com\car_crm\mapper\UserMapper.java
F:\myIdeaProject\CarCRM\project_crm\src\main\java\com\car_crm\service\impl\PurposeCustomServiceImpl.java
F:\myIdeaProject\CarCRM\project_crm\src\main\java\com\car_crm\mapper\BargainCustomMapper.java
F:\myIdeaProject\CarCRM\project_crm\src\main\java\com\car_crm\vo\common\User.java
F:\myIdeaProject\CarCRM\project_crm\src\main\java\com\car_crm\config\SimpleFilter.java
F:\myIdeaProject\CarCRM\project_crm\src\main\java\com\car_crm\service\UserService.java
F:\myIdeaProject\CarCRM\project_crm\src\main\java\com\car_crm\service\impl\ComplaintServiceImpl.java
F:\myIdeaProject\CarCRM\project_crm\src\main\java\com\car_crm\vo\Req\ReqPredict.java
F:\myIdeaProject\CarCRM\project_crm\src\main\java\com\car_crm\config\Swagger2Config.java
F:\myIdeaProject\CarCRM\project_crm\src\main\java\com\car_crm\service\DemandService.java
F:\myIdeaProject\CarCRM\project_crm\src\main\java\com\car_crm\vo\Req\ReqComplaint.java
F:\myIdeaProject\CarCRM\project_crm\src\main\java\com\car_crm\service\ComplaintService.java
F:\myIdeaProject\CarCRM\project_crm\src\main\java\com\car_crm\service\impl\DemandServiceImpl.java
F:\myIdeaProject\CarCRM\project_crm\src\main\java\com\car_crm\vo\ErrorCustomizer.java
F:\myIdeaProject\CarCRM\project_crm\src\main\java\com\car_crm\controller\LoginController.java
F:\myIdeaProject\CarCRM\project_crm\src\main\java\com\car_crm\service\impl\UserServiceImpl.java
F:\myIdeaProject\CarCRM\project_crm\src\main\java\com\car_crm\utils\ParamCheckUtil.java
F:\myIdeaProject\CarCRM\project_crm\src\main\java\com\car_crm\vo\Req\ReqModify.java
F:\myIdeaProject\CarCRM\project_crm\src\main\java\com\car_crm\service\PurposeCustomService.java
F:\myIdeaProject\CarCRM\project_crm\src\main\java\com\car_crm\mapper\ContractMapper.java
F:\myIdeaProject\CarCRM\project_crm\src\main\java\com\car_crm\service\ContractService.java
F:\myIdeaProject\CarCRM\project_crm\src\main\java\com\car_crm\vo\BaseReq.java
F:\myIdeaProject\CarCRM\project_crm\src\main\java\com\car_crm\vo\PageBean.java
F:\myIdeaProject\CarCRM\project_crm\src\main\java\com\car_crm\vo\Req\ReqContract.java
F:\myIdeaProject\CarCRM\project_crm\src\main\java\com\car_crm\vo\common\Complaint.java
F:\myIdeaProject\CarCRM\project_crm\src\main\java\com\car_crm\vo\Req\ReqPurposeCustom.java
F:\myIdeaProject\CarCRM\project_crm\src\main\java\com\car_crm\utils\Predict.java
F:\myIdeaProject\CarCRM\project_crm\src\main\java\com\car_crm\mapper\PurposeCustomMapper.java
F:\myIdeaProject\CarCRM\project_crm\src\main\java\com\car_crm\service\impl\BargainCustomServiceImpl.java
F:\myIdeaProject\CarCRM\project_crm\src\main\java\com\car_crm\vo\Req\ReqDemand.java
F:\myIdeaProject\CarCRM\project_crm\src\main\java\com\car_crm\vo\common\Demand.java
F:\myIdeaProject\CarCRM\project_crm\src\main\java\com\car_crm\vo\common\Menu.java
F:\myIdeaProject\CarCRM\project_crm\src\main\java\com\car_crm\utils\PasswordUtil.java
F:\myIdeaProject\CarCRM\project_crm\src\main\java\com\car_crm\vo\common\PurposeCustom.java
F:\myIdeaProject\CarCRM\project_crm\src\main\java\com\car_crm\controller\StatController.java
F:\myIdeaProject\CarCRM\project_crm\src\main\java\com\car_crm\vo\BaseResp.java
F:\myIdeaProject\CarCRM\project_crm\src\main\java\com\car_crm\mapper\RoleRUserMapper.java
F:\myIdeaProject\CarCRM\project_crm\src\main\java\com\car_crm\vo\common\RoleRUser.java
F:\myIdeaProject\CarCRM\project_crm\src\main\java\com\car_crm\vo\common\Permission.java
F:\myIdeaProject\CarCRM\project_crm\src\main\java\com\car_crm\service\BargainCustomService.java
F:\myIdeaProject\CarCRM\project_crm\src\main\java\com\car_crm\vo\common\Contract.java
F:\myIdeaProject\CarCRM\project_crm\src\main\java\com\car_crm\controller\BaseController.java
F:\myIdeaProject\CarCRM\project_crm\src\main\java\com\car_crm\mapper\ComplaintMapper.java
F:\myIdeaProject\CarCRM\project_crm\src\main\java\com\car_crm\vo\common\BargainCustom.java
F:\myIdeaProject\CarCRM\project_crm\src\main\java\com\car_crm\vo\common\BargainStat.java
F:\myIdeaProject\CarCRM\project_crm\src\main\java\com\car_crm\vo\Req\ReqBargainCustom.java
F:\myIdeaProject\CarCRM\project_crm\src\main\java\com\car_crm\vo\common\CustomStatInfo.java
